lab8/Lab.vcd
$date
	Wed May 18 19:47:54 2022
$end
$version
	Icarus Verilog
$end
$timescale
	1ps
$end
$scope module lab8tb $end
$var wire 1 ! out_valid $end
$var wire 8 " ansY [7:0] $end
$var wire 8 # ansX [7:0] $end
$var reg 1 $ clk $end
$var reg 9 % correct [8:0] $end
$var reg 8 & dataX [7:0] $end
$var reg 8 ' dataY [7:0] $end
$var reg 1 ( fail $end
$var reg 1 ) getdata $end
$var reg 1 * give_valid $end
$var reg 3 + inout_flag [2:0] $end
$var reg 100 , line [99:0] $end
$var reg 4 - loop [3:0] $end
$var reg 1 . reset $end
$var reg 4 / state [3:0] $end
$var reg 4 0 testset [3:0] $end
$var integer 32 1 charcount [31:0] $end
$var integer 32 2 cycle [31:0] $end
$var integer 32 3 fd [31:0] $end
$var integer 32 4 i [31:0] $end
$var integer 32 5 loop_gold [31:0] $end
$var integer 32 6 loop_in [31:0] $end
$scope module xa $end
$var wire 1 $ clk $end
$var wire 8 7 dataX [7:0] $end
$var wire 8 8 dataY [7:0] $end
$var wire 1 * give_valid $end
$var wire 1 . reset $end
$var reg 8 9 ansX [7:0] $end
$var reg 8 : ansY [7:0] $end
$var reg 8 ; ix [7:0] $end
$var reg 8 < jx [7:0] $end
$var reg 8 = kx [7:0] $end
$var reg 1 ! out_valid $end
$var reg 4 > state [3:0] $end
$var integer 32 ? i [31:0] $end
$upscope $end
$upscope $end
$scope module lab8tb $end
$scope module xa $end
$var reg 8 @ \inX[0] [7:0] $end
$upscope $end
$upscope $end
$scope module lab8tb $end
$scope module xa $end
$var reg 8 A \inY[0] [7:0] $end
$upscope $end
$upscope $end
$scope module lab8tb $end
$scope module xa $end
$var reg 8 B \tempX[0] [7:0] $end
$upscope $end
$upscope $end
$scope module lab8tb $end
$scope module xa $end
$var reg 8 C \tempY[0] [7:0] $end
$upscope $end
$upscope $end
$scope module lab8tb $end
$scope module xa $end
$var reg 4 D \count[0] [3:0] $end
$upscope $end
$upscope $end
$scope module lab8tb $end
$scope module xa $end
$var reg 8 E \inX[1] [7:0] $end
$upscope $end
$upscope $end
$scope module lab8tb $end
$scope module xa $end
$var reg 8 F \inY[1] [7:0] $end
$upscope $end
$upscope $end
$scope module lab8tb $end
$scope module xa $end
$var reg 8 G \tempX[1] [7:0] $end
$upscope $end
$upscope $end
$scope module lab8tb $end
$scope module xa $end
$var reg 8 H \tempY[1] [7:0] $end
$upscope $end
$upscope $end
$scope module lab8tb $end
$scope module xa $end
$var reg 4 I \count[1] [3:0] $end
$upscope $end
$upscope $end
$scope module lab8tb $end
$scope module xa $end
$var reg 8 J \inX[2] [7:0] $end
$upscope $end
$upscope $end
$scope module lab8tb $end
$scope module xa $end
$var reg 8 K \inY[2] [7:0] $end
$upscope $end
$upscope $end
$scope module lab8tb $end
$scope module xa $end
$var reg 8 L \tempX[2] [7:0] $end
$upscope $end
$upscope $end
$scope module lab8tb $end
$scope module xa $end
$var reg 8 M \tempY[2] [7:0] $end
$upscope $end
$upscope $end
$scope module lab8tb $end
$scope module xa $end
$var reg 4 N \count[2] [3:0] $end
$upscope $end
$upscope $end
$scope module lab8tb $end
$scope module xa $end
$var reg 8 O \inX[3] [7:0] $end
$upscope $end
$upscope $end
$scope module lab8tb $end
$scope module xa $end
$var reg 8 P \inY[3] [7:0] $end
$upscope $end
$upscope $end
$scope module lab8tb $end
$scope module xa $end
$var reg 8 Q \tempX[3] [7:0] $end
$upscope $end
$upscope $end
$scope module lab8tb $end
$scope module xa $end
$var reg 8 R \tempY[3] [7:0] $end
$upscope $end
$upscope $end
$scope module lab8tb $end
$scope module xa $end
$var reg 4 S \count[3] [3:0] $end
$upscope $end
$upscope $end
$scope module lab8tb $end
$scope module xa $end
$var reg 8 T \inX[4] [7:0] $end
$upscope $end
$upscope $end
$scope module lab8tb $end
$scope module xa $end
$var reg 8 U \inY[4] [7:0] $end
$upscope $end
$upscope $end
$scope module lab8tb $end
$scope module xa $end
$var reg 8 V \tempX[4] [7:0] $end
$upscope $end
$upscope $end
$scope module lab8tb $end
$scope module xa $end
$var reg 8 W \tempY[4] [7:0] $end
$upscope $end
$upscope $end
$scope module lab8tb $end
$scope module xa $end
$var reg 4 X \count[4] [3:0] $end
$upscope $end
$upscope $end
$scope module lab8tb $end
$scope module xa $end
$var reg 8 Y \inX[5] [7:0] $end
$upscope $end
$upscope $end
$scope module lab8tb $end
$scope module xa $end
$var reg 8 Z \inY[5] [7:0] $end
$upscope $end
$upscope $end
$scope module lab8tb $end
$scope module xa $end
$var reg 8 [ \tempX[5] [7:0] $end
$upscope $end
$upscope $end
$scope module lab8tb $end
$scope module xa $end
$var reg 8 \ \tempY[5] [7:0] $end
$upscope $end
$upscope $end
$scope module lab8tb $end
$scope module xa $end
$var reg 4 ] \count[5] [3:0] $end
$upscope $end
$upscope $end
$scope module lab8tb $end
$var reg 7 ^ \datx[0] [6:0] $end
$upscope $end
$scope module lab8tb $end
$var reg 7 _ \daty[0] [6:0] $end
$upscope $end
$scope module lab8tb $end
$var reg 7 ` \goldx[0] [6:0] $end
$upscope $end
$scope module lab8tb $end
$var reg 7 a \goldy[0] [6:0] $end
$upscope $end
$scope module lab8tb $end
$var reg 7 b \datx[1] [6:0] $end
$upscope $end
$scope module lab8tb $end
$var reg 7 c \daty[1] [6:0] $end
$upscope $end
$scope module lab8tb $end
$var reg 7 d \goldx[1] [6:0] $end
$upscope $end
$scope module lab8tb $end
$var reg 7 e \goldy[1] [6:0] $end
$upscope $end
$scope module lab8tb $end
$var reg 7 f \datx[2] [6:0] $end
$upscope $end
$scope module lab8tb $end
$var reg 7 g \daty[2] [6:0] $end
$upscope $end
$scope module lab8tb $end
$var reg 7 h \goldx[2] [6:0] $end
$upscope $end
$scope module lab8tb $end
$var reg 7 i \goldy[2] [6:0] $end
$upscope $end
$scope module lab8tb $end
$var reg 7 j \datx[3] [6:0] $end
$upscope $end
$scope module lab8tb $end
$var reg 7 k \daty[3] [6:0] $end
$upscope $end
$scope module lab8tb $end
$var reg 7 l \goldx[3] [6:0] $end
$upscope $end
$scope module lab8tb $end
$var reg 7 m \goldy[3] [6:0] $end
$upscope $end
$scope module lab8tb $end
$var reg 7 n \datx[4] [6:0] $end
$upscope $end
$scope module lab8tb $end
$var reg 7 o \daty[4] [6:0] $end
$upscope $end
$scope module lab8tb $end
$var reg 7 p \goldx[4] [6:0] $end
$upscope $end
$scope module lab8tb $end
$var reg 7 q \goldy[4] [6:0] $end
$upscope $end
$scope module lab8tb $end
$var reg 7 r \datx[5] [6:0] $end
$upscope $end
$scope module lab8tb $end
$var reg 7 s \daty[5] [6:0] $end
$upscope $end
$scope module lab8tb $end
$var reg 7 t \goldx[5] [6:0] $end
$upscope $end
$scope module lab8tb $end
$var reg 7 u \goldy[5] [6:0] $end
$upscope $end
$scope module lab8tb $end
$var reg 7 v \datx[6] [6:0] $end
$upscope $end
$scope module lab8tb $end
$var reg 7 w \daty[6] [6:0] $end
$upscope $end
$scope module lab8tb $end
$var reg 7 x \goldx[6] [6:0] $end
$upscope $end
$scope module lab8tb $end
$var reg 7 y \goldy[6] [6:0] $end
$upscope $end
$scope module lab8tb $end
$var reg 7 z \datx[7] [6:0] $end
$upscope $end
$scope module lab8tb $end
$var reg 7 { \daty[7] [6:0] $end
$upscope $end
$scope module lab8tb $end
$var reg 7 | \goldx[7] [6:0] $end
$upscope $end
$scope module lab8tb $end
$var reg 7 } \goldy[7] [6:0] $end
$upscope $end
$scope module lab8tb $end
$var reg 7 ~ \datx[8] [6:0] $end
$upscope $end
$scope module lab8tb $end
$var reg 7 !" \daty[8] [6:0] $end
$upscope $end
$scope module lab8tb $end
$var reg 7 "" \goldx[8] [6:0] $end
$upscope $end
$scope module lab8tb $end
$var reg 7 #" \goldy[8] [6:0] $end
$upscope $end
$scope module lab8tb $end
$var reg 7 $" \datx[9] [6:0] $end
$upscope $end
$scope module lab8tb $end
$var reg 7 %" \daty[9] [6:0] $end
$upscope $end
$scope module lab8tb $end
$var reg 7 &" \goldx[9] [6:0] $end
$upscope $end
$scope module lab8tb $end
$var reg 7 '" \goldy[9] [6:0] $end
$upscope $end
$scope module lab8tb $end
$var reg 7 (" \datx[10] [6:0] $end
$upscope $end
$scope module lab8tb $end
$var reg 7 )" \daty[10] [6:0] $end
$upscope $end
$scope module lab8tb $end
$var reg 7 *" \goldx[10] [6:0] $end
$upscope $end
$scope module lab8tb $end
$var reg 7 +" \goldy[10] [6:0] $end
$upscope $end
$scope module lab8tb $end
$var reg 7 ," \datx[11] [6:0] $end
$upscope $end
$scope module lab8tb $end
$var reg 7 -" \daty[11] [6:0] $end
$upscope $end
$scope module lab8tb $end
$var reg 7 ." \goldx[11] [6:0] $end
$upscope $end
$scope module lab8tb $end
$var reg 7 /" \goldy[11] [6:0] $end
$upscope $end
$scope module lab8tb $end
$var reg 7 0" \datx[12] [6:0] $end
$upscope $end
$scope module lab8tb $end
$var reg 7 1" \daty[12] [6:0] $end
$upscope $end
$scope module lab8tb $end
$var reg 7 2" \goldx[12] [6:0] $end
$upscope $end
$scope module lab8tb $end
$var reg 7 3" \goldy[12] [6:0] $end
$upscope $end
$scope module lab8tb $end
$var reg 7 4" \datx[13] [6:0] $end
$upscope $end
$scope module lab8tb $end
$var reg 7 5" \daty[13] [6:0] $end
$upscope $end
$scope module lab8tb $end
$var reg 7 6" \goldx[13] [6:0] $end
$upscope $end
$scope module lab8tb $end
$var reg 7 7" \goldy[13] [6:0] $end
$upscope $end
$scope module lab8tb $end
$var reg 7 8" \datx[14] [6:0] $end
$upscope $end
$scope module lab8tb $end
$var reg 7 9" \daty[14] [6:0] $end
$upscope $end
$scope module lab8tb $end
$var reg 7 :" \goldx[14] [6:0] $end
$upscope $end
$scope module lab8tb $end
$var reg 7 ;" \goldy[14] [6:0] $end
$upscope $end
$scope module lab8tb $end
$var reg 7 <" \datx[15] [6:0] $end
$upscope $end
$scope module lab8tb $end
$var reg 7 =" \daty[15] [6:0] $end
$upscope $end
$scope module lab8tb $end
$var reg 7 >" \goldx[15] [6:0] $end
$upscope $end
$scope module lab8tb $end
$var reg 7 ?" \goldy[15] [6:0] $end
$upscope $end
$scope module lab8tb $end
$var reg 7 @" \datx[16] [6:0] $end
$upscope $end
$scope module lab8tb $end
$var reg 7 A" \daty[16] [6:0] $end
$upscope $end
$scope module lab8tb $end
$var reg 7 B" \goldx[16] [6:0] $end
$upscope $end
$scope module lab8tb $end
$var reg 7 C" \goldy[16] [6:0] $end
$upscope $end
$scope module lab8tb $end
$var reg 7 D" \datx[17] [6:0] $end
$upscope $end
$scope module lab8tb $end
$var reg 7 E" \daty[17] [6:0] $end
$upscope $end
$scope module lab8tb $end
$var reg 7 F" \goldx[17] [6:0] $end
$upscope $end
$scope module lab8tb $end
$var reg 7 G" \goldy[17] [6:0] $end
$upscope $end
$enddefinitions $end
#0
$dumpvars
b10011 G"
b1001100 F"
b1010110 E"
b100001 D"
b1010 C"
b110011 B"
b10010 A"
b11001 @"
b10010 ?"
b11001 >"
b1010 ="
b110011 <"
b1010110 ;"
b100001 :"
b1011001 9"
b101101 8"
b1011001 7"
b101101 6"
b10011 5"
b1001100 4"
b1001110 3"
b1001110 2"
b1001110 1"
b1001110 0"
b110010 /"
b1010 ."
b1010000 -"
b1001100 ,"
b1010010 +"
b11011 *"
b1010010 )"
b11011 ("
b1010000 '"
b1001100 &"
b111110 %"
b1011000 $"
b111110 #"
b1011000 ""
b1101 !"
b1000010 ~
b1101 }
b1000010 |
b110010 {
b1010 z
b1110 y
b11111 x
b1110 w
b11111 v
b1101 u
b100010 t
b1010110 s
b100001 r
b1001000 q
b10001 p
b1001000 o
b10001 n
b1010110 m
b100001 l
b1011000 k
b111110 j
b1011000 i
b111110 h
b1101 g
b100010 f
b11100 e
b1010100 d
b11100 c
b1010100 b
b1110 a
b1000101 `
b1110 _
b1000101 ^
bx ]
bx \
bx [
bx Z
bx Y
bx X
bx W
bx V
bx U
bx T
bx S
bx R
bx Q
bx P
bx O
bx N
bx M
bx L
bx K
bx J
bx I
bx H
bx G
bx F
bx E
bx D
bx C
bx B
bx A
bx @
b110 ?
bx >
bx =
bx <
bx ;
bx :
bx 9
bx 8
bx 7
b10010 6
b10010 5
b10010 4
b10000000000000000000000000000011 3
b0 2
b1 1
bx 0
bx /
0.
bx -
b1010 ,
b10 +
x*
0)
x(
bx '
bx &
bx %
0$
bx #
bx "
x!
$end
#25
b1 2
1$
#27
b0 =
b0 <
b0 ;
b101 ]
b0 \
b0 [
b0 Z
b0 Y
b100 X
b0 W
b0 V
b0 U
b0 T
b11 S
b0 R
b0 Q
b0 P
b0 O
b10 N
b0 M
b0 L
b0 K
b0 J
b1 I
b0 H
b0 G
b0 F
b0 E
b0 D
b0 C
b0 B
b0 A
b0 @
b1 >
0!
b110 ?
1.
#50
b1 0
b0 %
b0 5
b0 6
b0 -
0.
b0 /
0(
0$
#75
b10 2
1$
#100
b1 /
0$
#125
b11 2
1$
#150
b1 6
b1 -
b1110 '
b1110 8
b1000101 &
b1000101 7
1*
0$
#175
b1 ;
b1110 A
b1000101 @
b100 2
1$
#200
b10 6
b10 -
b11100 '
b11100 8
b1010100 &
b1010100 7
0$
#225
b10 ;
b11100 F
b1010100 E
b101 2
1$
#250
b11 6
b11 -
b1101 '
b1101 8
b100010 &
b100010 7
0$
#275
b11 ;
b1101 K
b100010 J
b110 2
1$
#300
b100 6
b100 -
b1011000 '
b1011000 8
b111110 &
b111110 7
0$
#325
b100 ;
b1011000 P
b111110 O
b111 2
1$
#350
b101 6
b101 -
b1001000 '
b1001000 8
b10001 &
b10001 7
0$
#375
b101 ;
b1001000 U
b10001 T
b1000 2
1$
#400
b110 6
b110 -
b1010110 '
b1010110 8
b100001 &
b100001 7
0$
#425
b110 ;
b1010110 Z
b100001 Y
b1001 2
1$
#450
b0 -
0*
b10 /
0$
#475
b10 >
b1010 2
1$
#500
0$
#525
b0 C
b0 B
b1110 H
b1111 G
b11111111 M
b11011101 L
b1001010 R
b11111001 Q
b111010 W
b11001100 V
b1001000 \
b11011100 [
b11 >
b1011 2
1$
#550
0$
#575
b1 <
b1100 2
1$
#600
0$
#625
b10 <
b1101 2
1$
#650
0$
#675
b11 <
b1110 2
1$
#700
0$
#725
b100 <
b1111 2
1$
#750
0$
#775
b101 <
b10000 2
1$
#800
0$
#825
b0 <
b1 =
b10001 2
1$
#850
0$
#875
b1 <
b10010 2
1$
#900
0$
#925
b10 <
b10011 2
1$
#950
0$
#975
b11 <
b10100 2
1$
#1000
0$
#1025
b100 <
b10101 2
1$
#1050
0$
#1075
b101 <
b10110 2
1$
#1100
0$
#1125
b0 <
b10 =
b10111 2
1$
#1150
0$
#1175
b1 <
b11000 2
1$
#1200
0$
#1225
b10 <
b11001 2
1$
#1250
0$
#1275
b11 <
b11010 2
1$
#1300
0$
#1325
b100 <
b11011 2
1$
#1350
0$
#1375
b101 <
b11100 2
1$
#1400
0$
#1425
b0 <
b11 =
b11101 2
1$
#1450
0$
#1475
b1 <
b11110 2
1$
#1500
0$
#1525
b10 <
b11111 2
1$
#1550
0$
#1575
b11 <
b100000 2
1$
#1600
0$
#1625
b100 <
b100001 2
1$
#1650
0$
#1675
b101 <
b100010 2
1$
#1700
0$
#1725
b0 <
b100 =
b100011 2
1$
#1750
0$
#1775
b1 <
b100100 2
1$
#1800
0$
#1825
b10 <
b100101 2
1$
#1850
0$
#1875
b11 <
b100110 2
1$
#1900
0$
#1925
b100 <
b100111 2
1$
#1950
0$
#1975
b101 <
b101000 2
1$
#2000
0$
#2025
b0 <
b101 =
b101001 2
1$
#2050
0$
#2075
b1 <
b101010 2
1$
#2100
0$
#2125
b10 <
b101011 2
1$
#2150
0$
#2175
b11 <
b101100 2
1$
#2200
0$
#2225
b100 <
b101101 2
1$
#2250
0$
#2275
b101 <
b101110 2
1$
#2300
0$
#2325
b0 <
b0 ;
b100 >
b101111 2
1$
#2350
0$
#2375
b1010110 R
b100001 Q
b1001000 W
b10001 V
b1011000 M
b111110 L
b1101 \
b100010 [
b11100 H
b1010100 G
b1110 C
b1000101 B
b101 >
b110 ?
b110000 2
1$
#2400
0$
#2425
1!
b110001 2
1$
#2450
b1 5
b1 -
0$
#2475
b1 ;
b11100 "
b11100 :
b1010100 #
b1010100 9
b110010 2
1$
#2500
b10 5
b10 -
b1 %
0$
#2525
b10 ;
b1011000 "
b1011000 :
b111110 #
b111110 9
b110011 2
1$
#2550
b11 5
b11 -
b10 %
0$
#2575
b11 ;
b1010110 "
b1010110 :
b100001 #
b100001 9
b110100 2
1$
#2600
b100 5
b100 -
b11 %
0$
#2625
b100 ;
b1001000 "
b1001000 :
b10001 #
b10001 9
b110101 2
1$
#2650
b101 5
b101 -
b100 %
0$
#2675
b101 ;
b1101 "
b1101 :
b100010 #
b100010 9
b110110 2
1$
#2700
b110 5
b0 /
b10 0
b1 -
b101 %
0$
#2725
b110 ;
bx "
bx :
bx #
bx 9
b110111 2
1$
#2750
b0 -
b1 /
0$
#2775
b0 "
b0 :
b0 #
b0 9
b0 =
b0 ;
b101 ]
b0 \
b0 [
b0 Z
b0 Y
b100 X
b0 W
b0 V
b0 U
b0 T
b11 S
b0 R
b0 Q
b0 P
b0 O
b10 N
b0 M
b0 L
b0 K
b0 J
b1 I
b0 H
b0 G
b0 F
b0 E
b0 D
b0 C
b0 B
b0 A
b0 @
b1 >
b110 ?
b111000 2
1$
#2800
b111 6
b1 -
b1110 '
b1110 8
b11111 &
b11111 7
1*
0$
#2825
b1 ;
b1110 A
b11111 @
0!
b111001 2
1$
#2850
b1000 6
b10 -
b110010 '
b110010 8
b1010 &
b1010 7
0$
#2875
b10 ;
b110010 F
b1010 E
b111010 2
1$
#2900
b1001 6
b11 -
b1101 '
b1101 8
b1000010 &
b1000010 7
0$
#2925
b11 ;
b1101 K
b1000010 J
b111011 2
1$
#2950
b1010 6
b100 -
b111110 '
b111110 8
b1011000 &
b1011000 7
0$
#2975
b100 ;
b111110 P
b1011000 O
b111100 2
1$
#3000
b1011 6
b101 -
b1010010 '
b1010010 8
b11011 &
b11011 7
0$
#3025
b101 ;
b1010010 U
b11011 T
b111101 2
1$
#3050
b1100 6
b110 -
b1010000 '
b1010000 8
b1001100 &
b1001100 7
0$
#3075
b110 ;
b1010000 Z
b1001100 Y
b111110 2
1$
#3100
b0 -
0*
b10 /
0$
#3125
b10 >
b111111 2
1$
#3150
0$
#3175
b0 C
b0 B
b100100 H
b11101011 G
b11111111 M
b100011 L
b110000 R
b111001 Q
b1000100 W
b11111100 V
b1000010 \
b101101 [
b11 >
b1000000 2
1$
#3200
0$
#3225
b1 <
b1000001 2
1$
#3250
0$
#3275
b10 <
b1000010 2
1$
#3300
0$
#3325
b11 <
b1000011 2
1$
#3350
0$
#3375
b100 <
b1000100 2
1$
#3400
0$
#3425
b101 <
b1000101 2
1$
#3450
0$
#3475
b0 <
b1 =
b1000110 2
1$
#3500
0$
#3525
b1 <
b1000111 2
1$
#3550
0$
#3575
b10 <
b1001000 2
1$
#3600
0$
#3625
b11 <
b1001001 2
1$
#3650
0$
#3675
b100 <
b1001010 2
1$
#3700
0$
#3725
b101 <
b1001011 2
1$
#3750
0$
#3775
b0 <
b10 =
b1001100 2
1$
#3800
0$
#3825
b1 <
b1001101 2
1$
#3850
0$
#3875
b10 <
b1001110 2
1$
#3900
0$
#3925
b11 <
b1001111 2
1$
#3950
0$
#3975
b100 <
b1010000 2
1$
#4000
0$
#4025
b101 <
b1010001 2
1$
#4050
0$
#4075
b0 <
b11 =
b1010010 2
1$
#4100
0$
#4125
b1 <
b1010011 2
1$
#4150
0$
#4175
b10 <
b1010100 2
1$
#4200
0$
#4225
b11 <
b1010101 2
1$
#4250
0$
#4275
b100 <
b1010110 2
1$
#4300
0$
#4325
b101 <
b1010111 2
1$
#4350
0$
#4375
b0 <
b100 =
b1011000 2
1$
#4400
0$
#4425
b1 <
b1011001 2
1$
#4450
0$
#4475
b10 <
b1011010 2
1$
#4500
0$
#4525
b11 <
b1011011 2
1$
#4550
0$
#4575
b100 <
b1011100 2
1$
#4600
0$
#4625
b101 <
b1011101 2
1$
#4650
0$
#4675
b0 <
b101 =
b1011110 2
1$
#4700
0$
#4725
b1 <
b1011111 2
1$
#4750
0$
#4775
b10 <
b1100000 2
1$
#4800
0$
#4825
b11 <
b1100001 2
1$
#4850
0$
#4875
b100 <
b1100010 2
1$
#4900
0$
#4925
b101 <
b1100011 2
1$
#4950
0$
#4975
b0 <
b0 ;
b100 >
b1100100 2
1$
#5000
0$
#5025
b1010000 R
b1001100 Q
b1010010 W
b11011 V
b111110 M
b1011000 L
b110010 \
b1010 [
b1101 H
b1000010 G
b1110 C
b11111 B
b101 >
b110 ?
b1100101 2
1$
#5050
0$
#5075
1!
b1100110 2
1$
#5100
b111 5
b1 -
1(
0$
#5125
b1 ;
b1101 "
b1101 :
b1000010 #
b1000010 9
b1100111 2
1$
#5150
b1000 5
b10 -
b110 %
0$
#5175
b10 ;
b111110 "
b111110 :
b1011000 #
b1011000 9
b1101000 2
1$
#5200
b1001 5
b11 -
b111 %
0$
#5225
b11 ;
b1010000 "
b1010000 :
b1001100 #
b1001100 9
b1101001 2
1$
#5250
b1010 5
b100 -
b1000 %
0$
#5275
b100 ;
b1010010 "
b1010010 :
b11011 #
b11011 9
b1101010 2
1$
#5300
b1011 5
b101 -
b1001 %
0$
#5325
b101 ;
b110010 "
b110010 :
b1010 #
b1010 9
b1101011 2
1$
#5350
b1100 5
b0 /
b11 0
b1 -
b1010 %
0$
#5375
b110 ;
bx "
bx :
bx #
bx 9
b1101100 2
1$
#5400
b0 -
b1 /
0(
0$
#5425
b0 "
b0 :
b0 #
b0 9
b0 =
b0 ;
b101 ]
b0 \
b0 [
b0 Z
b0 Y
b100 X
b0 W
b0 V
b0 U
b0 T
b11 S
b0 R
b0 Q
b0 P
b0 O
b10 N
b0 M
b0 L
b0 K
b0 J
b1 I
b0 H
b0 G
b0 F
b0 E
b0 D
b0 C
b0 B
b0 A
b0 @
b1 >
b110 ?
b1101101 2
1$
#5450
b1101 6
b1 -
b1001110 '
b1001110 8
b1001110 &
b1001110 7
1*
0$
#5475
b1 ;
b1001110 A
b1001110 @
0!
b1101110 2
1$
#5500
b1110 6
b10 -
b10011 '
b10011 8
b1001100 &
b1001100 7
0$
#5525
b10 ;
b10011 F
b1001100 E
b1101111 2
1$
#5550
b1111 6
b11 -
b1011001 '
b1011001 8
b101101 &
b101101 7
0$
#5575
b11 ;
b1011001 K
b101101 J
b1110000 2
1$
#5600
b10000 6
b100 -
b1010 '
b1010 8
b110011 &
b110011 7
0$
#5625
b100 ;
b1010 P
b110011 O
b1110001 2
1$
#5650
b10001 6
b101 -
b10010 '
b10010 8
b11001 &
b11001 7
0$
#5675
b101 ;
b10010 U
b11001 T
b1110010 2
1$
#5700
b10010 6
b110 -
b1010110 '
b1010110 8
b100001 &
b100001 7
0$
#5725
b110 ;
b1010110 Z
b100001 Y
b1110011 2
1$
#5750
b0 -
0*
b10 /
0$
#5775
b10 >
b1110100 2
1$
#5800
0$
#5825
b0 C
b0 B
b11000101 H
b11111110 G
b1011 M
b11011111 L
b10111100 R
b11100101 Q
b11000100 W
b11001011 V
b1000 \
b11010011 [
b11 >
b1110101 2
1$
#5850
0$
#5875
b1 <
b1110110 2
1$
#5900
0$
#5925
b10 <
b1110111 2
1$
#5950
0$
#5975
b11 <
b1111000 2
1$
#6000
0$
#6025
b100 <
b1111001 2
1$
#6050
0$
#6075
b101 <
b1111010 2
1$
#6100
0$
#6125
b0 <
b1 =
b1111011 2
1$
#6150
0$
#6175
b1 <
b1111100 2
1$
#6200
0$
#6225
b10 <
b1111101 2
1$
#6250
0$
#6275
b11 <
b1111110 2
1$
#6300
0$
#6325
b100 <
b1111111 2
1$
#6350
0$
#6375
b101 <
b10000000 2
1$
#6400
0$
#6425
b0 <
b10 =
b10000001 2
1$
#6450
0$
#6475
b1 <
b10000010 2
1$
#6500
0$
#6525
b10 <
b10000011 2
1$
#6550
0$
#6575
b11 <
b10000100 2
1$
#6600
0$
#6625
b100 <
b10000101 2
1$
#6650
0$
#6675
b101 <
b10000110 2
1$
#6700
0$
#6725
b0 <
b11 =
b10000111 2
1$
#6750
0$
#6775
b1 <
b10001000 2
1$
#6800
0$
#6825
b10 <
b10001001 2
1$
#6850
0$
#6875
b11 <
b10001010 2
1$
#6900
0$
#6925
b100 <
b10001011 2
1$
#6950
0$
#6975
b101 <
b10001100 2
1$
#7000
0$
#7025
b0 <
b100 =
b10001101 2
1$
#7050
0$
#7075
b1 <
b10001110 2
1$
#7100
0$
#7125
b10 <
b10001111 2
1$
#7150
0$
#7175
b11 <
b10010000 2
1$
#7200
0$
#7225
b100 <
b10010001 2
1$
#7250
0$
#7275
b101 <
b10010010 2
1$
#7300
0$
#7325
b0 <
b101 =
b10010011 2
1$
#7350
0$
#7375
b1 <
b10010100 2
1$
#7400
0$
#7425
b10 <
b10010101 2
1$
#7450
0$
#7475
b11 <
b10010110 2
1$
#7500
0$
#7525
b100 <
b10010111 2
1$
#7550
0$
#7575
b101 <
b10011000 2
1$
#7600
0$
#7625
b0 <
b0 ;
b100 >
b10011001 2
1$
#7650
0$
#7675
b1010110 M
b100001 L
b10010 R
b11001 Q
b1010 W
b110011 V
b10011 \
b1001100 [
b1011001 H
b101101 G
b1001110 C
b1001110 B
b101 >
b110 ?
b10011010 2
1$
#7700
0$
#7725
1!
b10011011 2
1$
#7750
b1101 5
b1 -
1(
0$
#7775
b1 ;
b1011001 "
b1011001 :
b101101 #
b101101 9
b10011100 2
1$
#7800
b1110 5
b10 -
b1011 %
0$
#7825
b10 ;
b1010110 "
b1010110 :
b100001 #
b100001 9
b10011101 2
1$
#7850
b1111 5
b11 -
b1100 %
0$
#7875
b11 ;
b10010 "
b10010 :
b11001 #
b11001 9
b10011110 2
1$
#7900
b10000 5
b100 -
b1101 %
0$
#7925
b100 ;
b1010 "
b1010 :
b110011 #
b110011 9
b10011111 2
1$
#7950
b10001 5
b101 -
b1110 %
0$
#7975
b101 ;
b10011 "
b10011 :
b1001100 #
b1001100 9
b10100000 2
1$
#8000
b10010 5
b11 /
b100 0
b1 -
b1111 %
0$
#8025
b110 ;
bx "
bx :
bx #
bx 9
b10100001 2
1$
